{"meta":{"count":100,"pageCount":2,"totalCount":168,"next":"/api/peers?page=2&limit=100","previous":null,"self":"/api/peers?page=1&limit=100","first":"/api/peers?page=1&limit=100","last":"/api/peers?page=2&limit=100"},"data":[{"ip":"51.91.13.6","port":4001,"ports":{"@arkecosystem/core-wallet-api":4040,"@arkecosystem/core-api":4003,"@arkecosystem/core-webhooks":-1,"@arkecosystem/core-exchange-json-rpc":-1},"version":"2.5.25","height":9845640,"latency":23},{"ip":"136.243.18.22","port":4001,"ports":{"@arkecosystem/core-webhooks":-1,"@arkecosystem/core-exchange-json-rpc":-1,"@arkecosystem/core-wallet-api":4040,"@arkecosystem/core-api":4003},"version":"2.5.25","height":9845647,"latency":76},{"ip":"51.255.81.175","port":4001,"ports":{"@arkecosystem/core-webhooks":-1,"@arkecosystem/core-exchange-json-rpc":-1,"@arkecosystem/core-api":4003,"@arkecosystem/core-wallet-api":4040},"version":"2.5.25","height":9845647,"latency":76},{"ip":"199.247.16.24","port":4001,"ports":{"@arkecosystem/core-wallet-api":4040,"@arkecosystem/core-api":4003,"@arkecosystem/core-webhooks":-1,"@arkecosystem/core-exchange-json-rpc":-1},"version":"2.5.25","height":9845647,"latency":77},{"ip":"116.203.124.203","port":4001,"ports":{"@arkecosystem/core-webhooks":-1,"@arkecosystem/core-exchange-json-rpc":-1,"@arkecosystem/core-api":4003,"@arkecosystem/core-wallet-api":4040},"version":"2.5.24","height":9845647,"latency":77},{"ip":"95.216.78.91","port":4001,"ports":{"@arkecosystem/core-wallet-api":4040,"@arkecosystem/core-api":4003,"@arkecosystem/core-webhooks":-1,"@arkecosystem/core-exchange-json-rpc":-1},"version":"2.5.25","height":9845647,"latency":77},{"ip":"167.114.232.110","port":4001,"ports":{"@arkecosystem/core-wallet-api":4040,"@arkecosystem/core-api":4003,"@arkecosystem/core-webhooks":-1,"@arkecosystem/core-exchange-json-rpc":-1},"version":"2.5.25","height":9845647,"latency":78},{"ip":"116.203.46.34","port":4001,"ports":{"@arkecosystem/core-webhooks":-1,"@arkecosystem/core-api":4003,"@arkecosystem/core-wallet-api":4040,"@arkecosystem/core-exchange-json-rpc":-1},"version":"2.5.25","height":9845647,"latency":78},{"ip":"176.9.91.216","port":4001,"ports":{"@arkecosystem/core-wallet-api":4040,"@arkecosystem/core-api":4003,"@arkecosystem/core-webhooks":-1,"@arkecosystem/core-exchange-json-rpc":-1},"version":"2.5.25","height":9845647,"latency":78},{"ip":"51.79.17.142","port":4001,"ports":{"@arkecosystem/core-wallet-api":4040,"@arkecosystem/core-api":4003,"@arkecosystem/core-webhooks":-1,"@arkecosystem/core-exchange-json-rpc":-1},"version":"2.5.25","height":9845644,"latency":125},{"ip":"51.77.42.10","port":4001,"ports":{"@arkecosystem/core-wallet-api":-1,"@arkecosystem/core-api":-1,"@arkecosystem/core-webhooks":-1,"@arkecosystem/core-exchange-json-rpc":-1},"version":"2.5.25","height":9845647,"latency":130},{"ip":"94.23.23.90","port":4001,"ports":{"@arkecosystem/core-webhooks":-1,"@arkecosystem/core-wallet-api":4040,"@arkecosystem/core-api":4003,"@arkecosystem/core-exchange-json-rpc":-1},"version":"2.4.12","height":9845647,"latency":131},{"ip":"46.4.82.232","port":4001,"ports":{"@arkecosystem/core-webhooks":-1,"@arkecosystem/core-api":-1},"version":"2.5.25","height":9845646,"latency":141},{"ip":"139.162.193.249","port":4001,"ports":{"@arkecosystem/core-webhooks":-1,"@arkecosystem/core-exchange-json-rpc":-1,"@arkecosystem/core-api":4003,"@arkecosystem/core-wallet-api":4040},"version":"2.5.25","height":9845646,"latency":142},{"ip":"217.160.169.226","port":4001,"ports":{"@arkecosystem/core-api":-1,"@arkecosystem/core-wallet-api":-1,"@arkecosystem/core-webhooks":-1,"@arkecosystem/core-exchange-json-rpc":-1},"version":"2.5.25","height":9845646,"latency":144},{"ip":"185.175.56.165","port":4001,"ports":{"@arkecosystem/core-api":4003,"@arkecosystem/core-wallet-api":4040,"@arkecosystem/core-webhooks":-1,"@arkecosystem/core-exchange-json-rpc":-1},"version":"2.5.14","height":9845646,"latency":145},{"ip":"51.68.197.248","port":4001,"ports":{"@arkecosystem/core-wallet-api":4040,"@arkecosystem/core-api":4003,"@arkecosystem/core-webhooks":-1,"@arkecosystem/core-exchange-json-rpc":-1},"version":"2.5.25","height":9845646,"latency":147},{"ip":"108.46.169.235","port":4001,"ports":{"@arkecosystem/core-api":4003,"@arkecosystem/core-wallet-api":-1,"@arkecosystem/core-webhooks":-1,"@arkecosystem/core-exchange-json-rpc":-1},"version":"2.5.25","height":9845646,"latency":148},{"ip":"54.38.119.241","port":4001,"ports":{},"version":"2.5.25","height":9845647,"latency":152},{"ip":"88.99.81.210","port":4001,"ports":{"@arkecosystem/core-webhooks":-1,"@arkecosystem/core-exchange-json-rpc":-1,"@arkecosystem/core-api":4003,"@arkecosystem/core-wallet-api":4040},"version":"2.5.25","height":9845647,"latency":152},{"ip":"116.203.18.191","port":4001,"ports":{"@arkecosystem/core-webhooks":-1,"@arkecosystem/core-exchange-json-rpc":-1,"@arkecosystem/core-wallet-api":4040,"@arkecosystem/core-api":4003},"version":"2.5.25","height":9845647,"latency":154},{"ip":"104.238.185.59","port":4001,"ports":{"@arkecosystem/core-exchangejson-rpc":-1,"@arkecosystem/core-webhooks":-1,"@arkecosystem/core-wallet-api":4040,"@arkecosystem/core-api":4003},"version":"2.5.14","height":9845646,"latency":155},{"ip":"45.32.238.137","port":4001,"ports":{"@arkecosystem/core-webhooks":-1,"@arkecosystem/core-json-rpc":-1,"@arkecosystem/core-api":4003,"@arkecosystem/core-wallet-api":4040},"version":"2.5.25","height":9845646,"latency":159},{"ip":"185.24.218.50","port":4001,"ports":{"@arkecosystem/core-api":4003,"@arkecosystem/core-wallet-api":4040,"@arkecosystem/core-webhooks":-1,"@arkecosystem/core-exchange-json-rpc":-1},"version":"2.5.25","height":9845646,"latency":160},{"ip":"148.251.178.12","port":4001,"ports":{"@arkecosystem/core-wallet-api":4040,"@arkecosystem/core-api":4003,"@arkecosystem/core-webhooks":-1,"@arkecosystem/core-exchange-json-rpc":-1},"version":"2.5.25","height":9845646,"latency":160},{"ip":"45.76.230.221","port":4001,"ports":{"@arkecosystem/core-wallet-api":-1,"@arkecosystem/core-api":-1,"@arkecosystem/core-webhooks":-1,"@arkecosystem/core-exchange-json-rpc":-1},"version":"2.5.25","height":9845646,"latency":161},{"ip":"54.38.119.242","port":4001,"ports":{},"version":"2.5.25","height":9845646,"latency":162},{"ip":"104.238.132.186","port":4001,"ports":{"@arkecosystem/core-webhooks":-1,"@arkecosystem/core-exchange-json-rpc":-1,"@arkecosystem/core-api":4003,"@arkecosystem/core-wallet-api":4040},"version":"2.5.14","height":9845646,"latency":162},{"ip":"178.128.225.191","port":4001,"ports":{"@arkecosystem/core-webhooks":-1,"@arkecosystem/core-api":-1},"version":"2.5.25","height":9845646,"latency":163},{"ip":"195.201.63.59","port":4001,"ports":{"@arkecosystem/core-wallet-api":-1,"@arkecosystem/core-api":-1,"@arkecosystem/core-webhooks":-1,"@arkecosystem/core-exchange-json-rpc":-1},"version":"2.4.12","height":9845646,"latency":163},{"ip":"178.62.247.235","port":4001,"ports":{"@arkecosystem/core-webhooks":-1,"@arkecosystem/core-json-rpc":-1,"@arkecosystem/core-wallet-api":4040,"@arkecosystem/core-api":4003},"version":"2.5.25","height":9845646,"latency":164},{"ip":"149.248.59.211","port":4001,"ports":{"@arkecosystem/core-wallet-api":-1,"@arkecosystem/core-api":-1,"@arkecosystem/core-webhooks":-1,"@arkecosystem/core-exchange-json-rpc":-1},"version":"2.5.25","height":9845646,"latency":165},{"ip":"176.103.48.37","port":4001,"ports":{"@arkecosystem/core-exchange-json-rpc":-1,"@arkecosystem/core-webhooks":-1,"@arkecosystem/core-wallet-api":4040,"@arkecosystem/core-api":4003},"version":"2.5.25","height":9845646,"latency":207},{"ip":"5.196.105.36","port":4001,"ports":{"@arkecosystem/core-webhooks":-1,"@arkecosystem/core-exchange-json-rpc":-1,"@arkecosystem/core-wallet-api":4040,"@arkecosystem/core-api":4003},"version":"2.5.25","height":9845646,"latency":217},{"ip":"185.27.32.248","port":4001,"ports":{"@arkecosystem/core-webhooks":-1,"@arkecosystem/core-exchange-json-rpc":-1,"@arkecosystem/core-api":4003,"@arkecosystem/core-wallet-api":4040},"version":"2.5.24","height":9845646,"latency":218},{"ip":"149.28.42.78","port":4001,"ports":{"@arkecosystem/core-wallet-api":4040,"@arkecosystem/core-api":4003,"@arkecosystem/core-webhooks":-1,"@arkecosystem/core-exchange-json-rpc":-1},"version":"2.5.19","height":9845646,"latency":220},{"ip":"94.237.25.100","port":4001,"ports":{"@arkecosystem/core-wallet-api":4040,"@arkecosystem/core-api":4003,"@arkecosystem/core-webhooks":-1},"version":"2.5.25","height":9845645,"latency":302},{"ip":"40.117.209.246","port":4001,"ports":{"@arkecosystem/core-api":4003,"@arkecosystem/core-wallet-api":-1,"@arkecosystem/core-webhooks":-1,"@arkecosystem/core-exchange-json-rpc":-1},"version":"2.5.19","height":9845645,"latency":317},{"ip":"54.39.145.132","port":4001,"ports":{"@arkecosystem/core-api":4003,"@arkecosystem/core-wallet-api":4040,"@arkecosystem/core-webhooks":-1,"@arkecosystem/core-exchange-json-rpc":-1},"version":"2.5.25","height":9845645,"latency":339},{"ip":"51.158.76.129","port":4001,"ports":{"@arkecosystem/core-webhooks":-1,"@arkecosystem/core-exchange-json-rpc":-1,"@arkecosystem/core-api":4003,"@arkecosystem/core-wallet-api":4040},"version":"2.5.25","height":9845645,"latency":353},{"ip":"178.170.68.156","port":4001,"ports":{"@arkecosystem/core-webhooks":-1,"@arkecosystem/core-exchange-json-rpc":-1,"@arkecosystem/core-api":4003,"@arkecosystem/core-wallet-api":4040},"version":"2.5.25","height":9845645,"latency":365},{"ip":"145.239.7.21","port":4001,"ports":{"@arkecosystem/core-wallet-api":-1,"@arkecosystem/core-exchange-json-rpc":-1,"@arkecosystem/core-webhooks":-1,"@arkecosystem/core-api":-1},"version":"2.5.25","height":9845647,"latency":385},{"ip":"123.31.31.29","port":4001,"ports":{"@arkecosystem/core-exchange-json-rpc":-1,"@arkecosystem/core-webhooks":-1,"@arkecosystem/core-api":4003,"@arkecosystem/core-wallet-api":4040},"version":"2.5.25","height":9845645,"latency":388},{"ip":"159.69.248.125","port":4001,"ports":{"@arkecosystem/core-wallet-api":4040,"@arkecosystem/core-api":4003,"@arkecosystem/core-webhooks":-1,"@arkecosystem/core-exchange-json-rpc":-1},"version":"2.5.25","height":9845647,"latency":389},{"ip":"82.223.100.85","port":4001,"ports":{"@arkecosystem/core-exchange-json-rpc":-1,"@arkecosystem/core-wallet-api":-1,"@arkecosystem/core-webhooks":-1,"@arkecosystem/core-api":-1},"version":"2.5.25","height":9845647,"latency":389},{"ip":"185.170.113.62","port":4001,"ports":{"@arkecosystem/core-webhooks":-1,"@arkecosystem/core-exchange-json-rpc":-1,"@arkecosystem/core-wallet-api":4040,"@arkecosystem/core-api":4003},"version":"2.5.19","height":9845647,"latency":391},{"ip":"104.237.1.7","port":4001,"ports":{"@arkecosystem/core-api":-1,"@arkecosystem/core-wallet-api":-1,"@arkecosystem/core-webhooks":-1,"@arkecosystem/core-exchange-json-rpc":-1},"version":"2.5.25","height":9845645,"latency":399},{"ip":"5.196.105.38","port":4001,"ports":{"@arkecosystem/core-webhooks":-1,"@arkecosystem/core-exchange-json-rpc":-1,"@arkecosystem/core-wallet-api":4040,"@arkecosystem/core-api":4003},"version":"2.5.25","height":9845647,"latency":416},{"ip":"104.209.234.243","port":4001,"ports":{"@arkecosystem/core-wallet-api":-1,"@arkecosystem/core-api":-1,"@arkecosystem/core-webhooks":-1,"@arkecosystem/core-exchange-json-rpc":-1},"version":"2.5.24","height":9845647,"latency":416},{"ip":"85.235.64.19","port":4001,"ports":{"@arkecosystem/core-wallet-api":4040,"@arkecosystem/core-api":-1,"@arkecosystem/core-webhooks":-1,"@arkecosystem/core-forger":-1,"@arkecosystem/core-json-rpc":-1},"version":"2.5.17","height":9845647,"latency":416},{"ip":"94.16.115.113","port":4001,"ports":{"@arkecosystem/core-wallet-api":-1,"@arkecosystem/core-webhooks":-1,"@arkecosystem/core-exchange-json-rpc":-1,"@arkecosystem/core-api":-1},"version":"2.5.25","height":9845647,"latency":416},{"ip":"51.75.64.104","port":4001,"ports":{"@arkecosystem/core-wallet-api":-1,"@arkecosystem/core-api":-1,"@arkecosystem/core-webhooks":-1,"@arkecosystem/core-exchange-json-rpc":-1},"version":"2.5.25","height":9845647,"latency":416},{"ip":"195.171.43.170","port":4001,"ports":{"@arkecosystem/core-webhooks":-1,"@arkecosystem/core-exchangejson-rpc":-1,"@arkecosystem/core-wallet-api":4040,"@arkecosystem/core-api":4003},"version":"2.5.25","height":9845647,"latency":416},{"ip":"151.80.125.38","port":4001,"ports":{"@arkecosystem/core-webhooks":-1,"@arkecosystem/core-exchange-json-rpc":-1,"@arkecosystem/core-wallet-api":4040,"@arkecosystem/core-api":4003},"version":"2.5.25","height":9845647,"latency":416},{"ip":"213.32.41.108","port":4001,"ports":{"@arkecosystem/core-webhooks":-1,"@arkecosystem/core-exchange-json-rpc":-1,"@arkecosystem/core-wallet-api":4040,"@arkecosystem/core-api":4003},"version":"2.5.25","height":9845647,"latency":417},{"ip":"159.89.109.90","port":4001,"ports":{"@arkecosystem/core-wallet-api":4040,"@arkecosystem/core-api":4003,"@arkecosystem/core-webhooks":-1,"@arkecosystem/core-exchange-json-rpc":-1},"version":"2.5.24","height":9845647,"latency":417},{"ip":"116.203.78.110","port":4001,"ports":{"@arkecosystem/core-exchange-json-rpc":-1,"@arkecosystem/core-webhooks":-1,"@arkecosystem/core-api":4003,"@arkecosystem/core-wallet-api":4040},"version":"2.5.25","height":9845647,"latency":417},{"ip":"149.56.28.196","port":4001,"ports":{"@arkecosystem/core-webhooks":-1,"@arkecosystem/core-exchange-json-rpc":-1,"@arkecosystem/core-wallet-api":4040,"@arkecosystem/core-api":4003},"version":"2.5.25","height":9845647,"latency":417},{"ip":"178.32.65.140","port":4001,"ports":{"@arkecosystem/core-webhooks":-1,"@arkecosystem/core-exchange-json-rpc":-1,"@arkecosystem/core-wallet-api":4040,"@arkecosystem/core-api":4003},"version":"2.5.25","height":9845647,"latency":417},{"ip":"104.248.130.79","port":4001,"ports":{"@arkecosystem/core-webhooks":-1,"@arkecosystem/core-exchange-json-rpc":-1,"@arkecosystem/core-wallet-api":4040,"@arkecosystem/core-api":4003},"version":"2.5.25","height":9845647,"latency":417},{"ip":"5.196.105.44","port":4001,"ports":{"@arkecosystem/core-webhooks":-1,"@arkecosystem/core-exchange-json-rpc":-1,"@arkecosystem/core-wallet-api":4040,"@arkecosystem/core-api":4003},"version":"2.5.25","height":9845647,"latency":418},{"ip":"45.79.202.59","port":4001,"ports":{"@arkecosystem/core-webhooks":-1,"@arkecosystem/core-exchange-json-rpc":-1,"@arkecosystem/core-api":4003,"@arkecosystem/core-wallet-api":4040},"version":"2.5.14","height":9845647,"latency":418},{"ip":"5.196.105.45","port":4001,"ports":{"@arkecosystem/core-webhooks":-1,"@arkecosystem/core-exchange-json-rpc":-1,"@arkecosystem/core-wallet-api":4040,"@arkecosystem/core-api":4003},"version":"2.5.25","height":9845647,"latency":418},{"ip":"68.11.222.151","port":4001,"ports":{"@arkecosystem/core-wallet-api":4040,"@arkecosystem/core-api":4003,"@arkecosystem/core-webhooks":-1,"@arkecosystem/core-exchange-json-rpc":-1},"version":"2.5.25","height":9845647,"latency":418},{"ip":"68.183.75.228","port":4001,"ports":{"@arkecosystem/core-webhooks":-1,"@arkecosystem/core-api":-1},"version":"2.5.25","height":9845647,"latency":418},{"ip":"85.235.64.251","port":4001,"ports":{"@arkecosystem/core-wallet-api":-1,"@arkecosystem/core-api":-1,"@arkecosystem/core-webhooks":-1,"@arkecosystem/core-exchange-json-rpc":-1},"version":"2.5.25","height":9845647,"latency":418},{"ip":"5.196.105.42","port":4001,"ports":{"@arkecosystem/core-webhooks":-1,"@arkecosystem/core-exchange-json-rpc":-1,"@arkecosystem/core-wallet-api":4040,"@arkecosystem/core-api":4003},"version":"2.5.25","height":9845645,"latency":419},{"ip":"107.175.116.136","port":4001,"ports":{"@arkecosystem/core-exchange-json-rpc":-1,"@arkecosystem/core-webhooks":-1,"@arkecosystem/core-wallet-api":4040,"@arkecosystem/core-api":4003},"version":"2.5.25","height":9845647,"latency":419},{"ip":"5.135.22.93","port":4001,"ports":{"@arkecosystem/core-webhooks":-1,"@arkecosystem/core-exchange-json-rpc":-1,"@arkecosystem/core-wallet-api":4040,"@arkecosystem/core-api":4003},"version":"2.5.25","height":9845645,"latency":419},{"ip":"178.32.65.141","port":4001,"ports":{"@arkecosystem/core-webhooks":-1,"@arkecosystem/core-exchange-json-rpc":-1,"@arkecosystem/core-wallet-api":4040,"@arkecosystem/core-api":4003},"version":"2.5.25","height":9845647,"latency":421},{"ip":"193.70.88.125","port":4001,"ports":{"@arkecosystem/core-webhooks":-1,"@arkecosystem/core-exchange-json-rpc":-1,"@arkecosystem/core-wallet-api":4040,"@arkecosystem/core-api":4003},"version":"2.5.25","height":9845647,"latency":424},{"ip":"116.203.42.131","port":4001,"ports":{"@arkecosystem/core-api":-1,"@arkecosystem/core-webhooks":-1,"@arkecosystem/core-wallet-api":4040,"@arkecosystem/core-exchange-json-rpc":-1},"version":"2.5.25","height":9845647,"latency":424},{"ip":"116.203.231.63","port":4001,"ports":{"@arkecosystem/core-api":-1,"@arkecosystem/core-webhooks":-1,"@arkecosystem/core-wallet-api":-1,"@arkecosystem/core-exchange-json-rpc":-1},"version":"2.5.25","height":9845647,"latency":426},{"ip":"140.82.10.182","port":4001,"ports":{"@arkecosystem/core-webhooks":-1,"@arkecosystem/core-exchange-json-rpc":-1,"@arkecosystem/core-api":4003,"@arkecosystem/core-wallet-api":4040},"version":"2.5.25","height":9845647,"latency":426},{"ip":"45.33.78.157","port":4001,"ports":{"@arkecosystem/core-api":4003,"@arkecosystem/core-wallet-api":-1,"@arkecosystem/core-webhooks":-1,"@arkecosystem/core-exchange-json-rpc":-1},"version":"2.5.25","height":9845647,"latency":427},{"ip":"45.76.130.152","port":4001,"ports":{"@arkecosystem/core-webhooks":-1,"@arkecosystem/core-exchange-json-rpc":-1,"@arkecosystem/core-wallet-api":4040,"@arkecosystem/core-api":4003},"version":"2.5.25","height":9845647,"latency":427},{"ip":"69.164.215.82","port":4001,"ports":{"@arkecosystem/core-webhooks":-1,"@arkecosystem/core-api":4003,"@arkecosystem/core-wallet-api":4040,"@arkecosystem/core-exchange-json-rpc":-1},"version":"2.5.25","height":9845647,"latency":427},{"ip":"193.31.24.106","port":4001,"ports":{"@arkecosystem/core-api":4003,"@arkecosystem/core-wallet-api":-1,"@arkecosystem/core-webhooks":-1,"@arkecosystem/core-exchange-json-rpc":-1},"version":"2.5.25","height":9845647,"latency":428},{"ip":"176.9.17.154","port":4001,"ports":{"@arkecosystem/core-webhooks":-1,"@arkecosystem/core-exchange-json-rpc":-1,"@arkecosystem/core-wallet-api":4040,"@arkecosystem/core-api":4003},"version":"2.5.25","height":9845647,"latency":429},{"ip":"178.128.38.195","port":4001,"ports":{"@arkecosystem/core-webhooks":-1,"@arkecosystem/core-exchange-json-rpc":-1,"@arkecosystem/core-api":4003,"@arkecosystem/core-wallet-api":4040},"version":"2.5.25","height":9845647,"latency":430},{"ip":"5.196.105.43","port":4001,"ports":{"@arkecosystem/core-webhooks":-1,"@arkecosystem/core-exchange-json-rpc":-1,"@arkecosystem/core-wallet-api":4040,"@arkecosystem/core-api":4003},"version":"2.5.25","height":9845647,"latency":440},{"ip":"213.32.41.111","port":4001,"ports":{"@arkecosystem/core-webhooks":-1,"@arkecosystem/core-exchange-json-rpc":-1,"@arkecosystem/core-wallet-api":4040,"@arkecosystem/core-api":4003},"version":"2.5.25","height":9845647,"latency":440},{"ip":"142.4.215.181","port":4001,"ports":{"@arkecosystem/core-wallet-api":4040,"@arkecosystem/core-api":-1,"@arkecosystem/core-webhooks":-1,"@arkecosystem/core-exchange-json-rpc":-1},"version":"2.5.24","height":9845647,"latency":440},{"ip":"116.203.178.155","port":4001,"ports":{"@arkecosystem/core-api":-1,"@arkecosystem/core-wallet-api":-1,"@arkecosystem/core-webhooks":-1,"@arkecosystem/core-exchange-json-rpc":-1},"version":"2.5.25","height":9845647,"latency":441},{"ip":"176.103.48.24","port":4001,"ports":{"@arkecosystem/core-exchange-json-rpc":-1,"@arkecosystem/core-webhooks":-1,"@arkecosystem/core-wallet-api":4040,"@arkecosystem/core-api":4003},"version":"2.5.25","height":9845647,"latency":441},{"ip":"40.76.82.249","port":4001,"ports":{"@arkecosystem/core-api":4003,"@arkecosystem/core-wallet-api":-1,"@arkecosystem/core-webhooks":-1,"@arkecosystem/core-exchange-json-rpc":-1},"version":"2.5.19","height":9845647,"latency":441},{"ip":"66.70.237.147","port":4001,"ports":{"@arkecosystem/core-api":4003,"@arkecosystem/core-wallet-api":4040,"@arkecosystem/core-webhooks":-1,"@arkecosystem/core-exchange-json-rpc":-1},"version":"2.5.25","height":9845647,"latency":441},{"ip":"142.44.253.193","port":4001,"ports":{"@arkecosystem/core-wallet-api":4040,"@arkecosystem/core-api":-1,"@arkecosystem/core-webhooks":-1,"@arkecosystem/core-exchange-json-rpc":-1},"version":"2.5.25","height":9845647,"latency":442},{"ip":"54.38.120.36","port":4001,"ports":{"@arkecosystem/core-webhooks":-1,"@arkecosystem/core-exchange-json-rpc":-1,"@arkecosystem/core-wallet-api":4040,"@arkecosystem/core-api":4003},"version":"2.5.25","height":9845647,"latency":447},{"ip":"5.135.22.94","port":4001,"ports":{"@arkecosystem/core-webhooks":-1,"@arkecosystem/core-exchange-json-rpc":-1,"@arkecosystem/core-wallet-api":4040,"@arkecosystem/core-api":4003},"version":"2.5.25","height":9845647,"latency":448},{"ip":"198.204.247.124","port":4001,"ports":{"@arkecosystem/core-webhooks":-1,"@arkecosystem/core-exchange-json-rpc":-1,"@arkecosystem/core-api":4003,"@arkecosystem/core-wallet-api":4040,"@arkecosystem/core-explorer":4200},"version":"2.5.25","height":9845647,"latency":448},{"ip":"158.69.181.24","port":4001,"ports":{"@arkecosystem/core-wallet-api":-1,"@arkecosystem/core-exchange-json-rpc":-1,"@arkecosystem/core-api":-1,"@arkecosystem/core-webhooks":-1},"version":"2.5.25","height":9845647,"latency":448},{"ip":"144.217.89.2","port":4001,"ports":{"@arkecosystem/core-exchange-json-rpc":-1,"@arkecosystem/core-webhooks":-1,"@arkecosystem/core-wallet-api":4040,"@arkecosystem/core-api":4003},"version":"2.5.25","height":9845647,"latency":448},{"ip":"195.201.92.12","port":4001,"ports":{"@arkecosystem/core-webhooks":-1,"@arkecosystem/core-exchange-json-rpc":-1,"@arkecosystem/core-api":4003,"@arkecosystem/core-wallet-api":4040},"version":"2.5.25","height":9845647,"latency":448},{"ip":"159.65.81.98","port":4001,"ports":{"@arkecosystem/core-api":-1,"@arkecosystem/core-webhooks":-1},"version":"2.5.25","height":9845647,"latency":449},{"ip":"168.61.51.82","port":4001,"ports":{"@arkecosystem/core-wallet-api":-1,"@arkecosystem/core-api":-1,"@arkecosystem/core-webhooks":-1,"@arkecosystem/core-exchange-json-rpc":-1},"version":"2.5.25","height":9845647,"latency":449},{"ip":"213.32.9.96","port":4001,"ports":{"@arkecosystem/core-webhooks":-1,"@arkecosystem/core-exchange-json-rpc":-1,"@arkecosystem/core-wallet-api":4040,"@arkecosystem/core-api":4003},"version":"2.5.25","height":9845647,"latency":449},{"ip":"5.135.22.95","port":4001,"ports":{"@arkecosystem/core-webhooks":-1,"@arkecosystem/core-exchange-json-rpc":-1,"@arkecosystem/core-wallet-api":4040,"@arkecosystem/core-api":4003},"version":"2.5.25","height":9845647,"latency":449},{"ip":"151.80.125.33","port":4001,"ports":{"@arkecosystem/core-webhooks":-1,"@arkecosystem/core-exchange-json-rpc":-1,"@arkecosystem/core-wallet-api":4040,"@arkecosystem/core-api":4003},"version":"2.5.25","height":9845646,"latency":450},{"ip":"5.196.105.40","port":4001,"ports":{"@arkecosystem/core-webhooks":-1,"@arkecosystem/core-exchange-json-rpc":-1,"@arkecosystem/core-wallet-api":4040,"@arkecosystem/core-api":4003},"version":"2.5.25","height":9845647,"latency":450}]}